captures/wokwi-logic.vcd
$version Generated by Wokwi.com $end
$date Sun, 11 Dec 2022 12:22:14 GMT $end
$timescale 1ns $end
$scope module logic $end
$var wire 1 ! D0 $end
$var wire 1 " D7 $end
$upscope $end
$enddefinitions $end
#0
#468437
1!
#468437
1(
#468437
1"
#5518750
0!
#6004000
1!
#6034000
0!
#6154000
1!
#6485500
0!
#6549625
1!
#6555812
0!
#6620250
1!
#6632437
0!
#6696875
1!
#6703062
0!
#6767500
1!
#6773625
0!
#6783062
1!
#6839062
0!
#6848500
1!
#6904500
0!
#6913937
1!
#6969937
0!
#6979375
1!
#7037187
0!
#7039750
1!
#7102125
0!
#7117125
1!
#7168750
0!
#7177875
1!
#7234000
0!
#7249000
1!
#7298500
0!
#7301062
1!
#7365312
0!
#7429437
1!
#7435687
0!
#7450687
1!
#7500187
0!
#7502750
1!
#7567000
0!
#7631125
1!
#7643375
0!
#7658375
1!
#7707875
0!
#7710437
1!
#7774687
0!
#7838812
1!
#7845062
0!
#7860062
1!
#7909562
0!
#7912125
1!
#7976375
0!
#8040500
1!
#8046750
0!
#8062750
1!
#8111250
0!
#8113812
1!
#8178062
0!
#8242187
1!
#8248437
0!
#8263437
1!
#8312937
0!
#8315500
1!
#8379750
0!
#8443875
1!
#8450125
0!
#8465125
1!
#8514625
0!
#8517187
1!
#8581437
0!
#8645562
1!
#8657875
0!
#8660000
1!
#8722375
0!
#8737375
1!
#8789000
0!
#8798125
1!
#8854250
0!
#8869250
1!
#8918750
0!
#8921312
1!
#8985562
0!
#9049687
1!
#9055937
0!
#9070937
1!
#9120437
0!
#9123000
1!
#9187250
0!
#9251375
1!
#9257625
0!
#9272625
1!
#9322125
0!
#9324687
1!
#9388937
0!
#9453062
1!
#9459312
0!
#9474312
1!
#9523812
0!
#9526375
1!
#9590625
0!
#9654750
1!
#9661000
0!
#9676000
1!
#9731500
0!
#9734062
1!
#9798312
0!
#9862437
1!
#9868687
0!
#9883687
1!
#9933187
0!
#9935750
1!
#10000000
0!
#10064125
1!
#10070375
0!
#10085375
1!
#10134875
0!
#10137437
1!
#10201687
0!
#10265812
1!
#10272125
0!
#10274250
1!
#10336625
0!
#10351625
1!
#10403250
0!
#10412375
1!
#10468500
0!
#10483500
1!
#10533000
0!
#10535562
1!
#10599812
0!
#10663937
1!
#10670187
0!
#10685187
1!
#10740687
0!
#10743250
1!
#10807500
0!
#10871625
1!
#10877875
0!
#10892875
1!
#10942375
0!
#10944937
1!
#11009187
0!
#11073312
1!
#11079562
0!
#11094562
1!
#11144062
0!
#11146625
1!
#11210875
0!
#11275000
1!
#11281250
0!
#11296250
1!
#11345750
0!
#11348312
1!
#11412562
0!
#11476687
1!
#11482937
0!
#11497937
1!
#11547437
0!
#11550000
1!
#11614250
0!
#11678375
1!
#11684625
0!
#11699625
1!
#11755125
0!
#11757687
1!
#11821937
0!
#11886062
1!
#11892375
0!
#11894500
1!
#11956875
0!
#11971875
1!
#12023500
0!
#12032625
1!
#12088750
0!
#12103750
1!
#12153250
0!
#12155812
1!
#12220062
0!
#12284187
1!
#12290437
0!
#12305437
1!
#12354937
0!
#12357500
1!
#12421750
0!
#12485875
1!
#12492125
0!
#12507125
1!
#12556625
0!
#12559187
1!
#12623437
0!
#12687562
1!
#12693812
0!
#12708812
1!
#12764312
0!
#12766875
1!
#12831125
0!
#12895250
1!
#12901500
0!
#12916500
1!
#12966000
0!
#12968562
1!
#13032812
0!
#13096937
1!
#13103187
0!
#13118187
1!
#13167687
0!
#13170250
1!
#13234500
0!
#13298625
1!
#13304875
0!
#13319875
1!
#13369375
0!
#13371937
1!
#13436187
0!
#13500312
1!
#13506625
0!
#13508750
1!
#13571125
0!
#13586125
1!
#13637750
0!
#13646875
1!
#13703000
0!
#13718000
1!
#13773500
0!
#13776062
1!
#13840312
0!
#13904437
1!
#13910687
0!
#13925687
1!
#13975187
0!
#13977750
1!
#14042000
0!
#14106125
1!
#14112375
0!
#14127375
1!
#14176875
0!
#14179437
1!
#14243687
0!
#14307812
1!
#14314062
0!
#14329062
1!
#14378562
0!
#14381125
1!
#14445375
0!
#14509500
1!
#14515750
0!
#14530750
1!
#14580250
0!
#14582812
1!
#14647062
0!
#14711187
1!
#14717437
0!
#14732437
1!
#14781937
0!
#14784500
1!
#14854750
0!
#14918875
1!
#14925125
0!
#14940125
1!
#14989625
0!
#14992187
1!
#15056437
0!
#15120562
1!
#15126875
0!
#15141875
1!
#15191375
0!
#15193937
1!
#15258187
0!
#15322312
1!
#15328562
0!
#15343562
1!
#15393062
0!
#15395625
1!
#15459875
0!
#15524000
1!
#15530250
0!
#15545250
1!
#15594750
0!
#15597312
1!
#15661562
0!
#15725687
1!
#15731937
0!
#15746937
1!
#15796437
0!
#15799000
1!
#15869250
0!
#15933375
1!
#15939624
0!
#15954625
1!
#16004125
0!
#16006687
1!
#16070937
0!
#16135062
1!
#16141312
0!
#16156312
1!
#16205812
0!
#16208375
1!
#16272624
0!
#16336750
1!
#16343000
0!
#16358000
1!
#16407499
0!
#16410062
1!
#16474312
0!
#16538437
1!
#16544687
0!
#16559687
1!
#16609187
0!
#16611750
1!
#16676000
0!
#16740125
1!
#16746437
0!
#16748562
1!
#16810937
0!
#16825937
1!
#16883562
0!
#16892687
1!
#16948812
0!
#16963812
1!
#17013312
0!
#17015875
1!
#17080125
0!
#17144250
1!
#17150500
0!
#17165500
1!
#17215000
0!
#17217562
1!
#17281812
0!
#17345937
1!
#17352187
0!
#17367187
1!
#17416687
0!
#17419250
1!
#17483500
0!
#17547625
1!
#17553875
0!
#17568875
1!
#17618375
0!
#17620937
1!
#17685187
0!
#17749312
1!
#17755562
0!
#17770562
1!
#17820062
0!
#17822625
1!
#17892875
0!
#17957000
1!
#17963250
0!
#17978250
1!
#18027750
0!
#18030312
1!
#18094562
0!
#18158687
1!
#18164937
0!
#18179937
1!
#18229437
0!
#18232000
1!
#18296250
0!
#18360375
1!
#18366687
0!
#18368812
1!
#18431187
0!
#18446187
1!
#18497812
0!
#18506937
1!
#18563062
0!
#18578062
1!
#18627562
0!
#18630125
1!
#18694375
0!
#18758500
1!
#18764750
0!
#18779750
1!
#18829250
0!
#18831812
1!
#18902062
0!
#18966187
1!
#18972437
0!
#18987437
1!
#19036937
0!
#19039500
1!
#19103750
0!
#19167875
1!
#19174125
0!
#19189125
1!
#19238625
0!
#19241187
1!
#19305437
0!
#19369562
1!
#19375812
0!
#19390812
1!
#19440312
0!
#19442875
1!
#19507125
0!
#19571250
1!
#19577500
0!
#19592500
1!
#19642000
0!
#19644562
1!
#19708812
0!
#19772937
1!
#19779187
0!
#19794187
1!
#19843687
0!
#19846250
1!
#19916500
0!
#19980625
1!
#21459750
0!
#21991500
1!
#22021500
0!
#22141500
1!
#24756812
0!
#24820937
1!
#24834875
0!
#24899312
1!
#24905437
0!
#24914875
1!
#24978625
0!
#24988062
1!
#25057875
0!
#25122312
1!
#25136250
0!
#25200687
1!
#25206812
0!
#25216250
1!
#25280000
0!
#25289437
1!
#28617812
0!
#28681937
1!
#28695812
0!
#28705250
1!
#28761250
0!
#28770687
1!
#28834437
0!
#28843875
1!
#28907687
0!
#28972125
1!
#28986062
0!
#29050500
1!
#29056625
0!
#29066062
1!
#29135875
0!
#29200312
1!
#29217687
0!
#29226812
1!
#29282812
0!
#29292250
1!
#29356000
0!
#29365437
1!
#29429250
0!
#29493687
1!
#29507562
0!
#29517000
1!
#29573000
0!
#29582437
1!
#29646250
0!
#29710687
1!
#29724625
0!
#29789062
1!
#29798687
0!
#29807812
1!
#29871625
0!
#29936062
1!
#29950000
0!
#30014437
1!
#30020562
0!
#30030000
1!
#30093812
0!
#30158250
1!
#30178187
0!
#30242625
1!
#30248812
0!
#30313250
1!
#30327125
0!
#30336562
1!
#30396062
0!
#30405187
1!
#30468937
0!
#30478375
1!
#30542187
0!
#30606625
1!
#30620562
0!
#30685000
1!
#30691125
0!
#30700562
1!
#30764375
0!
#30828812
1!
#30843312
0!
#30907750
1!
#30913937
0!
#30978375
1!
#32326500
0!
#32852250
1!
#32882250
0!
#33002249
1!
#33622625
0!
#33686750
1!
#33700687
0!
#33765125
1!
#33771250
0!
#33780687
1!
#33844437
0!
#33853875
1!
#33917687
0!
#33982125
1!
#33996062
0!
#34060500
1!
#34066625
0!
#34076062
1!
#34139812
0!
#34149250
1!
#35500750
0!
#35564875
1!
#35578750
0!
#35588187
1!
#35644187
0!
#35653625
1!
#35717375
0!
#35726812
1!
#35790562
0!
#35800000
1!
#35863750
0!
#35873187
1!
#35937000
0!
#36001437
1!
#36007562
0!
#36017000
1!
#36083500
0!
#36086062
1!
#36156562
0!
#36171562
1!
#36229625
0!
#36244625
1!
#36308687
0!
#36311250
1!
#36374000
0!
#36389000
1!
#36447062
0!
#36462062
1!
#36520125
0!
#36535125
1!
#36593187
0!
#36595750
1!
#37032250
0!
#37034812
1!
#37097562
0!
#37100125
1!
#37170625
0!
#37173187
1!
#37243687
0!
#37258687
1!
#37322750
0!
#37325312
1!
#37395812
0!
#37398375
1!
#37461125
0!
#37476125
1!
#37534187
0!
#37549187
1!
#38024187
0!
#38039187
1!
#38089500
0!
#38104500
1!
#38162562
0!
#38177562
1!
#38235625
0!
#38250625
1!
#38308687
0!
#38323687
1!
#38387750
0!
#38402750
1!
#38453062
0!
#38468062
1!
#38526125
0!
#38541125
1!
#40353250
0!
#40368250
1!
#40424562
0!
#40439562
1!
#40497625
0!
#40512625
1!
#40570687
0!
#40585687
1!
#40643750
0!
#40658750
1!
#40716812
0!
#40731812
1!
#40782125
0!
#40797125
1!
#40855187
0!
#40870187
1!
#42682312
0!
#42684875
1!
#42747625
0!
#42750187
1!
#42820687
0!
#42835687
1!
#42893750
0!
#42908750
1!
#42966812
0!
#42969375
1!
#43039875
0!
#43054875
1!
#43105187
0!
#43120187
1!
#43178250
0!
#43193250
1!
#45094375
0!
#45109375
1!
#45159687
0!
#45174687
1!
#45232750
0!
#45247750
1!
#45305812
0!
#45320812
1!
#45378875
0!
#45393875
1!
#45451937
0!
#45466937
1!
#45523250
0!
#45538250
1!
#45596312
0!
#45611312
1!
#47423437
0!
#47438437
1!
#47488750
0!
#47503750
1!
#47567812
0!
#47582812
1!
#47640875
0!
#47655875
1!
#47713937
0!
#47728937
1!
#47787000
0!
#47802000
1!
#47852312
0!
#47867312
1!
#47925375
0!
#47940375
1!
#49758500
0!
#49773500
1!
#49823812
0!
#49838812
1!
#49896875
0!
#49911875
1!
#49969937
0!
#49984937
1!
#50043000
0!
#50058000
1!
#50116062
0!
#50131062
1!
#50181375
0!
#50196375
1!
#50254437
0!
#50269437
1!
#52081562
0!
#52096562
1!
#52146875
0!
#52161875
1!
#52219937
0!
#52222500
1!
#52293000
0!
#52295562
1!
#52366062
0!
#52381062
1!
#52439125
0!
#52441687
1!
#52504437
0!
#52507000
1!
#52577500
0!
#52580062
1!
#59850500
0!
#60376250
1!
#60406250
0!
#60526250
1!
#61270250
0!
#61279375
1!
#61335375
0!
#61344812
1!
#61408625
0!
#61473062
1!
#61487000
0!
#61551437
1!
#61557562
0!
#61567000
1!
#61630750
0!
#61640187
1!
#61704000
0!
#61768437
1!
#61782375
0!
#61846812
1!
#61855687
0!
#61858250
1!
#61934750
0!
#61937312
1!
#62007812
0!
#62010375
1!
#62080875
0!
#62083437
1!
#62153937
0!
#62156500
1!
#62219250
0!
#62234250
1!
#62292312
0!
#62307312
1!
#62365375
0!
#62367937
1!
#64119062
0!
#64121625
1!
#64184375
0!
#64199375
1!
#64257437
0!
#64260000
1!
#64330500
0!
#64333062
1!
#64403562
0!
#64406124
1!
#64476624
0!
#64491625
1!
#64541937
0!
#64556937
1!
#64615000
0!
#64617562
1!
#66887687
0!
#66890250
1!
#66953000
0!
#66955562
1!
#67032062
0!
#67034625
1!
#67105125
0!
#67120125
1!
#67178187
0!
#67193187
1!
#67251250
0!
#67266250
1!
#67316562
0!
#67331562
1!
#67389625
0!
#67392187
1!
#69661937
0!
#69664500
1!
#69727250
0!
#69729812
1!
#69800312
0!
#69802875
1!
#69873375
0!
#69888375
1!
#69946437
0!
#69961437
1!
#70019500
0!
#70022062
1!
#70090812
0!
#70093375
1!
#70163875
0!
#70178875
1!
#72436375
0!
#72438937
1!
#72501687
0!
#72516687
1!
#72574750
0!
#72589750
1!
#72647812
0!
#72650375
1!
#72720875
0!
#72723437
1!
#72793937
0!
#72808937
1!
#72859250
0!
#72874250
1!
#72932312
0!
#72934875
1!
#75210812
0!
#75225812
1!
#75276125
0!
#75291125
1!
#75349187
0!
#75351750
1!
#75422250
0!
#75437250
1!
#75495312
0!
#75510312
1!
#75568375
0!
#75583375
1!
#75633687
0!
#75636250
1!
#75706750
0!
#75709312
1!
#77984937
0!
#77987500
1!
#78050250
0!
#78052812
1!
#78123312
0!
#78125875
1!
#78196375
0!
#78211375
1!
#78269437
0!
#78272000
1!
#78348500
0!
#78351062
1!
#78413812
0!
#78416375
1!
#78486875
0!
#78489437
1!
#80759437
0!
#80762000
1!
#80824750
0!
#80827312
1!
#80897812
0!
#80900375
1!
#80970875
0!
#80985875
1!
#81043937
0!
#81058937
1!
#81117000
0!
#81132000
1!
#81182312
0!
#81197312
1!
#81255375
0!
#81270375
1!
#88787437
0!
#88851562
1!
#88857687
0!
#88867125
1!
#88930875
0!
#88940312
1!
#89004062
0!
#89013500
1!
#89077312
0!
#89141750
1!
#89155687
0!
#89220125
1!
#89226250
0!
#89235687
1!
#89299500
0!
#89363937
1!
#89381312
0!
#89390437
1!
#89446437
0!
#89455875
1!
#89519687
0!
#89584125
1!
#89604062
0!
#89668500
1!
#89674625
0!
#89684062
1!
#89747812
0!
#89757250
1!
#89821000
0!
#89830437
1!
#89894250
0!
#89958687
1!
#89976125
0!
#90040250
1!
#90046437
0!
#90110875
1!
#90124750
0!
#90134187
1!
#90190250
0!
#90254687
1!
#90268562
0!
#90278000
1!
#90334062
0!
#90398500
1!
#90412375
0!
#90421812
1!
#90477875
0!
#90542312
1!
#90559687
0!
#90568812
1!
#90630812
0!
#90640250
1!
#90704000
0!
#90713437
1!
#90777250
0!
#90841687
1!
#90855625
0!
#90920062
1!
#90926250
0!
#90990687
1!
#91004625
0!
#91069062
1!
#91075187
0!
#91084625
1!
#93154437
0!
#93686187
1!
#93716187
0!
#93836187
1!
#94759312
0!
#94768437
1!
#94824500
0!
#94888937
1!
#94902812
0!
#94912250
1!
#94968312
0!
#95032750
1!
#95046625
0!
#95056062
1!
#95112125
0!
#95176562
1!
#95190437
0!
#95199875
1!
#95255937
0!
#95320375
1!
#95338000
0!
#95347125
1!
#95403187
0!
#95467625
1!
#95481562
0!
#95546000
1!
#95552187
0!
#95616625
1!
#95630562
0!
#95695000
1!
#95714937
0!
#95779375
1!
#95785562
0!
#95850000
1!
#95863937
0!
#95928375
1!
#95938312
0!
#95947437
1!
#96011250
0!
#96075687
1!
#96089625
0!
#96154062
1!
#96160250
0!
#96224687
1!
#96238625
0!
#96303062
1!
#96309250
0!
#96373687
1!
#96387625
0!
#96452062
1!
#96458250
0!
#96522687
1!
#96540375
0!
#96549500
1!
#96605562
0!
#96670000
1!
#96683937
0!
#96748375
1!
#96768312
0!
#96832750
1!
#96838937
0!
#96903375
1!
#96917312
0!
#96981750
1!
#96987937
0!
#97052375
1!
#97066312
0!
#97130750
1!
#97140687
0!
#97149812
1!
#97213625
0!
#97278062
1!
#97292000
0!
#97356437
1!
#97362625
0!
#97427062
1!
#97441000
0!
#97505437
1!
#97511625
0!
#97576062
1!
#97590000
0!
#97654437
1!
#97660625
0!
#97725062
1!
#97748750
0!
#97757875
1!
#97813937
0!
#97878375
1!
#97892312
0!
#97956750
1!
#97962937
0!
#98027375
1!
#98041312
0!
#98105750
1!
#98111937
0!
#98176375
1!
#98190312
0!
#98254750
1!
#98260937
0!
#98325375
1!
#98343125
0!
#98407250
1!
#98413437
0!
#98477875
1!
#98491812
0!
#98556250
1!
#98562437
0!
#98626875
1!
#98640812
0!
#98705250
1!
#98711437
0!
#98775875
1!
#98795812
0!
#98860250
1!
#98866437
0!
#98930875
1!
#98948562
0!
#98957687
1!
#99013750
0!
#99078187
1!
#99092125
0!
#99156562
1!
#99162750
0!
#99227187
1!
#99241125
0!
#99305562
1!
#99311750
0!
#99376187
1!
#99390125
0!
#99454562
1!
#99460750
0!
#99525187
1!
#99542875
0!
#99552000
1!
#99608062
0!
#99672500
1!
#99686437
0!
#99750875
1!
#99757062
0!
#99821500
1!
#99841437
0!
#99905875
1!
#99912062
0!
#99976500
1!
#99990437
0!
#100054875
1!
#100061062
0!
#100125500
1!
#100352750
0!
#100416875
1!
#100430812
0!
#100495250
1!
#100501375
0!
#100510812
1!
#100574625
0!
#100639062
1!
#100653000
0!
#100717437
1!
#100723625
0!
#100788062
1!
#100807937
0!
#100817375
1!
#100873437
0!
#100937875
1!
#103364937
0!
#103896687
1!
#103926687
0!
#104046687
1!
#105059000
0!
#105068125
1!
#105124187
0!
#105188625
1!
#105202500
0!
#105211937
1!
#105268000
0!
#105332437
1!
#105346312
0!
#105355750
1!
#105411812
0!
#105476250
1!
#105490125
0!
#105499562
1!
#105555625
0!
#105620062
1!
#105637687
0!
#105646812
1!
#105702875
0!
#105767312
1!
#105781250
0!
#105845687
1!
#105851875
0!
#105916312
1!
#105936250
0!
#106000687
1!
#106014625
0!
#106079062
1!
#106085250
0!
#106149687
1!
#106163625
0!
#106228062
1!
#106238000
0!
#106247125
1!
#106310937
0!
#106375375
1!
#106389312
0!
#106453750
1!
#106459937
0!
#106524375
1!
#106538312
0!
#106602750
1!
#106608937
0!
#106673375
1!
#106687312
0!
#106751750
1!
#106757937
0!
#106822375
1!
#106840062
0!
#106849187
1!
#106905250
0!
#106969687
1!
#106989625
0!
#107054062
1!
#107060250
0!
#107124687
1!
#107138625
0!
#107203062
1!
#107209250
0!
#107273687
1!
#107287625
0!
#107352062
1!
#107358250
0!
#107422687
1!
#107440375
0!
#107449500
1!
#107505562
0!
#107570000
1!
#107583937
0!
#107648375
1!
#107654562
0!
#107719000
1!
#107732937
0!
#107797375
1!
#107803562
0!
#107868000
1!
#107881937
0!
#107946375
1!
#107952562
0!
#108017000
1!
#108040687
0!
#108049812
1!
#108105875
0!
#108170312
1!
#108184250
0!
#108248687
1!
#108254875
0!
#108319312
1!
#108333250
0!
#108397687
1!
#108403875
0!
#108468312
1!
#108482250
0!
#108546687
1!
#108552875
0!
#108617312
1!
#108635062
0!
#108699187
1!
#108705375
0!
#108769812
1!
#108783750
0!
#108848187
1!
#108854375
0!
#108918812
1!
#108932750
0!
#108997187
1!
#109017125
0!
#109081562
1!
#109087750
0!
#109152187
1!
#109166125
0!
#109230562
1!
#109240500
0!
#109249625
1!
#109313437
0!
#109377875
1!
#109391812
0!
#109456250
1!
#109462437
0!
#109526875
1!
#109540812
0!
#109605250
1!
#109611437
0!
#109675875
1!
#109689812
0!
#109754250
1!
#109760437
0!
#109824875
1!
#109842562
0!
#109851687
1!
#109907750
0!
#109972187
1!
#109986125
0!
#110050562
1!
#110070500
0!
#110134937
1!
#110141125
0!
#110205562
1!
#110219500
0!
#110283937
1!
#110290125
0!
#110354562
1!
#110368500
0!
#110432937
1!
#110766875
0!
#110831000
1!
#110844875
0!
#110854312
1!
#110910312
0!
#110919750
1!
#110983500
0!
#110992937
1!
#111062687
0!
#111072125
1!
#111135875
0!
#111145312
1!
#111209125
0!
#111273562
1!
#111287437
0!
#111296875
1!
#111355625
0!
#111358187
1!
#111428687
0!
#111431250
1!
#111501750
0!
#111504312
1!
#111574812
0!
#111589812
1!
#111647875
0!
#111662875
1!
#111713187
0!
#111715750
1!
#111786250
0!
#111801250
1!
#111859312
0!
#111861875
1!
#112332250
0!
#112334812
1!
#112405312
0!
#112420312
1!
#112478375
0!
#112493375
1!
#112551437
0!
#112566437
1!
#112624500
0!
#112639500
1!
#112689812
0!
#112704812
1!
#112762875
0!
#112777875
1!
#112835937
0!
#112850937
1!
#114593812
0!
#114608812
1!
#114659125
0!
#114674125
1!
#114732187
0!
#114747187
1!
#114805250
0!
#114820250
1!
#114878312
0!
#114893312
1!
#114951375
0!
#114966375
1!
#115016687
0!
#115031687
1!
#115089750
0!
#115104750
1!
#117272875
0!
#117287875
1!
#117338187
0!
#117353187
1!
#117411250
0!
#117426250
1!
#117484312
0!
#117499312
1!
#117557375
0!
#117572375
1!
#117630437
0!
#117645437
1!
#117695750
0!
#117710750
1!
#117768812
0!
#117783812
1!
#119951937
0!
#119954500
1!
#120017250
0!
#120019812
1!
#120090312
0!
#120092875
1!
#120163375
0!
#120178375
1!
#120236437
0!
#120251437
1!
#120315500
0!
#120330500
1!
#120380812
0!
#120395812
1!
#120453875
0!
#120456437
1!
#122729687
0!
#122744687
1!
#122795000
0!
#122810000
1!
#122868062
0!
#122883062
1!
#122941125
0!
#122956125
1!
#123014187
0!
#123029187
1!
#123087250
0!
#123102250
1!
#123152562
0!
#123167562
1!
#123225625
0!
#123240625
1!
#125408750
0!
#125424750
1!
#125474062
0!
#125489062
1!
#125547125
0!
#125562125
1!
#125620187
0!
#125635187
1!
#125693250
0!
#125708250
1!
#125766312
0!
#125781312
1!
#125831625
0!
#125846624
1!
#125904687
0!
#125919687
1!
#128087812
0!
#128102812
1!
#128153125
0!
#128168125
1!
#128226187
0!
#128241187
1!
#128299250
0!
#128314249
1!
#128372312
0!
#128387312
1!
#128445375
0!
#128460374
1!
#128516999
0!
#128532000
1!
#128590062
0!
#128605062
1!
#130773187
0!
#130788187
1!
#130838500
0!
#130853500
1!
#130911562
0!
#130926562
1!
#130984625
0!
#130987187
1!
#131057687
0!
#131072687
1!
#131130749
0!
#131145750
1!
#131196062
0!
#131211062
1!
#131269124
0!
#131271687
1!
#138361687
0!
#138893437
1!
#138923437
0!
#139043437
1!
#140055937
0!
#140065062
1!
#140121125
0!
#140185562
1!
#140199437
0!
#140208875
1!
#140264937
0!
#140329375
1!
#140343250
0!
#140352687
1!
#140408750
0!
#140473187
1!
#140487062
0!
#140496500
1!
#140552562
0!
#140617000
1!
#140634625
0!
#140643750
1!
#140699812
0!
#140764250
1!
#140784187
0!
#140848625
1!
#140854812
0!
#140919250
1!
#140933187
0!
#140997625
1!
#141003812
0!
#141068250
1!
#141082187
0!
#141146625
1!
#141152812
0!
#141217250
1!
#141234937
0!
#141244062
1!
#141300125
0!
#141364562
1!
#141378500
0!
#141442937
1!
#141449125
0!
#141513562
1!
#141527500
0!
#141591937
1!
#141598125
0!
#141662562
1!
#141676500
0!
#141740937
1!
#141747125
0!
#141811562
1!
#141835250
0!
#141844375
1!
#141900437
0!
#141964875
1!
#141978812
0!
#142043250
1!
#142049437
0!
#142113875
1!
#142127812
0!
#142192250
1!
#142198437
0!
#142262875
1!
#142276812
0!
#142341250
1!
#142347437
0!
#142411875
1!
#142429562
0!
#142438687
1!
#142494750
0!
#142559187
1!
#142573125
0!
#142637562
1!
#142643750
0!
#142708187
1!
#142722125
0!
#142786562
1!
#142806500
0!
#142870937
1!
#142877125
0!
#142941562
1!
#142955500
0!
#143019937
1!
#143029875
0!
#143039000
1!
#143102812
0!
#143167250
1!
#143181187
0!
#143245625
1!
#143251812
0!
#143316250
1!
#143330187
0!
#143394625
1!
#143400812
0!
#143465250
1!
#143479187
0!
#143543625
1!
#143549812
0!
#143614250
1!
#143632000
0!
#143696125
1!
#143702312
0!
#143766750
1!
#143780687
0!
#143845125
1!
#143865062
0!
#143929500
1!
#143935687
0!
#144000125
1!
#144014062
0!
#144078500
1!
#144084687
0!
#144149125
1!
#144163062
0!
#144227500
1!
#144237437
0!
#144246562
1!
#144310375
0!
#144374812
1!
#144388750
0!
#144453187
1!
#144459375
0!
#144523812
1!
#144537750
0!
#144602187
1!
#144608375
0!
#144672812
1!
#144686750
0!
#144751187
1!
#144757375
0!
#144821812
1!
#144845500
0!
#144854625
1!
#144910687
0!
#144975125
1!
#144989062
0!
#145053500
1!
#145059687
0!
#145124125
1!
#145138062
0!
#145202500
1!
#145208687
0!
#145273125
1!
#145287062
0!
#145351500
1!
#145357687
0!
#145422125
1!
#145756250
0!
#145820375
1!
#145834312
0!
#145898750
1!
#145918687
0!
#145983125
1!
#145989250
0!
#145998687
1!
#146062500
0!
#146126937
1!
#146140875
0!
#146205312
1!
#146211437
0!
#146220875
1!
#146284687
0!
#146349125
1!
#148597500
0!
#149129250
1!
#149159250
0!
#149279250
1!
#149649500
0!
#149713625
1!
#149727562
0!
#149792000
1!
#149798125
0!
#149807562
1!
#149871312
0!
#149880750
1!
#149944562
0!
#150009000
1!
#150028937
0!
#150093375
1!
#150099500
0!
#150108937
1!
#150172687
0!
#150182125
1!
#150249437
0!
#150313562
1!
#150327500
0!
#150391937
1!
#150398125
0!
#150462562
1!
#150476437
0!
#150485875
1!
#150541875
0!
#150551312
1!
#150615062
0!
#150624500
1!
#150688312
0!
#150752750
1!
#150766625
0!
#150776062
1!
#150833625
0!
#150836187
1!
#155500437
0!
#156018437
1!
#156048437
0!
#156168437
1!
#156552437
0!
#156616562
1!
#156622750
0!
#156687187
1!
#156701062
0!
#156710500
1!
#156766500
0!
#156775937
1!
#156839750
0!
#156904187
1!
#156918125
0!
#156982562
1!
#156988687
0!
#156998125
1!
#157061875
0!
#157071312
1!
#157144625
0!
#157208750
1!
#157222625
0!
#157232062
1!
#157288062
0!
#157297500
1!
#157361250
0!
#157370687
1!
#157434437
0!
#157443875
1!
#157507625
0!
#157517062
1!
#157580875
0!
#157645312
1!
#157651437
0!
#157660875
1!
#157727312
0!
#157729875
1!
#157800375
0!
#157802937
1!
#157873437
0!
#157876000
1!
#157946500
0!
#157961500
1!
#158011812
0!
#158026812
1!
#158084875
0!
#158087437
1!
#158163937
0!
#158178937
1!
#158237000
0!
#158239562
1!
#158703875
0!
#158706437
1!
#158776937
0!
#158791937
1!
#158850000
0!
#158865000
1!
#158915312
0!
#158930312
1!
#158988375
0!
#159003375
1!
#159061437
0!
#159076437
1!
#159134500
0!
#159149500
1!
#159213562
0!
#159228562
1!
#161171875
0!
#161186875
1!
#161243187
0!
#161258187
1!
#161316250
0!
#161331250
1!
#161389312
0!
#161404312
1!
#161462375
0!
#161477375
1!
#161535437
0!
#161550437
1!
#161600750
0!
#161615750
1!
#161673812
0!
#161688812
1!
#163856875
0!
#163871875
1!
#163922187
0!
#163937187
1!
#163995250
0!
#164010250
1!
#164068312
0!
#164083312
1!
#164141375
0!
#164156375
1!
#164214437
0!
#164229437
1!
#164279750
0!
#164294750
1!
#164358812
0!
#164373812
1!
#166541875
0!
#166544437
1!
#166607187
0!
#166609750
1!
#166680250
0!
#166682812
1!
#166753312
0!
#166768312
1!
#166826375
0!
#166841375
1!
#166899437
0!
#166914437
1!
#166964750
0!
#166979750
1!
#167037812
0!
#167040375
1!
#169310062
0!
#169325062
1!
#169375375
0!
#169390375
1!
#169454437
0!
#169469437
1!
#169527500
0!
#169542500
1!
#169600562
0!
#169615562
1!
#169673625
0!
#169688625
1!
#169738937
0!
#169753937
1!
#169812000
0!
#169827000
1!
#171995375
0!
#172010375
1!
#172060687
0!
#172075687
1!
#172133750
0!
#172148750
1!
#172206812
0!
#172221812
1!
#172279875
0!
#172294875
1!
#172352937
0!
#172367937
1!
#172418250
0!
#172433250
1!
#172497312
0!
#172512312
1!
#174674375
0!
#174689375
1!
#174739687
0!
#174754687
1!
#174812750
0!
#174827750
1!
#174885812
0!
#174900812
1!
#174958875
0!
#174973875
1!
#175031937
0!
#175046937
1!
#175097250
0!
#175112250
1!
#175170312
0!
#175185312
1!
#177358375
0!
#177373375
1!
#177423687
0!
#177438687
1!
#177496750
0!
#177511750
1!
#177569812
0!
#177572375
1!
#177648875
0!
#177663875
1!
#177721937
0!
#177736937
1!
#177787250
0!
#177802250
1!
#177860312
0!
#177862875
1!
#1133276937
1!
